The Neyman-Rubin Causal Model
…
We then create a nested dataset of imputed Science tables for a set of constant treatment effects which range from -15 to +15 yields.

# create imputed science tables for a set of effects
data_science_tables <- data %>%
  nest(data = everything()) %>%
  crossing(tau = seq(from = -15, to = 15, by = 1)) %>%
  mutate(science_table = map2(data, tau, ~ function_imputed_science_table(.x, .y)))

# display the data_science_tables
data_science_tables

## # A tibble: 31 x 3
##    data                tau science_table    
##    <list>            <dbl> <list>           
##  1 <tibble [11 x 2]>   -15 <tibble [11 x 2]>
##  2 <tibble [11 x 2]>   -14 <tibble [11 x 2]>
##  3 <tibble [11 x 2]>   -13 <tibble [11 x 2]>
##  4 <tibble [11 x 2]>   -12 <tibble [11 x 2]>
##  5 <tibble [11 x 2]>   -11 <tibble [11 x 2]>
##  6 <tibble [11 x 2]>   -10 <tibble [11 x 2]>
##  7 <tibble [11 x 2]>    -9 <tibble [11 x 2]>
##  8 <tibble [11 x 2]>    -8 <tibble [11 x 2]>
##  9 <tibble [11 x 2]>    -7 <tibble [11 x 2]>
## 10 <tibble [11 x 2]>    -6 <tibble [11 x 2]>
## # ... with 21 more rows
…
# map the function_randomization_distribution
data_science_tables <- data_science_tables %>%
  mutate(randomization_distribution = map(science_table, ~ function_randomization_distribution(.)))

We finally add to nested Science tables the value of the observed test statistic that will be used to compute the p-values:

# add observed value of the test statistic
data_science_tables <- data_science_tables %>%
  mutate(observed_test_statistic = diff_obs)

# display the data
data_science_tables

## # A tibble: 31 x 5
##    data                tau science_table     randomization_dis~ observed_test_s~
##    <list>            <dbl> <list>            <list>                        <dbl>
##  1 <tibble [11 x 2]>   -15 <tibble [11 x 2]> <dbl [462]>                    1.83
##  2 <tibble [11 x 2]>   -14 <tibble [11 x 2]> <dbl [462]>                    1.83
##  3 <tibble [11 x 2]>   -13 <tibble [11 x 2]> <dbl [462]>                    1.83
##  4 <tibble [11 x 2]>   -12 <tibble [11 x 2]> <dbl [462]>                    1.83
##  5 <tibble [11 x 2]>   -11 <tibble [11 x 2]> <dbl [462]>                    1.83
##  6 <tibble [11 x 2]>   -10 <tibble [11 x 2]> <dbl [462]>                    1.83
##  7 <tibble [11 x 2]>    -9 <tibble [11 x 2]> <dbl [462]>                    1.83
##  8 <tibble [11 x 2]>    -8 <tibble [11 x 2]> <dbl [462]>                    1.83
##  9 <tibble [11 x 2]>    -7 <tibble [11 x 2]> <dbl [462]>                    1.83
## 10 <tibble [11 x 2]>    -6 <tibble [11 x 2]> <dbl [462]>                    1.83
## # ... with 21 more rows
…
